Blog Post 4 –– Incumbency Advantage | A minimal Hugo website
…
Blog Post 4 –– Incumbency Advantage

Chris S

2024/09/29

## # A tibble: 97 × 14
##     year quarter   GDP GDP_growth_quarterly  RDPI RDPI_growth_quarterly   CPI
##    <dbl>   <dbl> <dbl>                <dbl> <dbl>                 <dbl> <dbl>
##  1  1928       2    NA                   NA    NA                    NA    NA
##  2  1929       2    NA                   NA    NA                    NA    NA
##  3  1930       2    NA                   NA    NA                    NA    NA
##  4  1931       2    NA                   NA    NA                    NA    NA
##  5  1932       2    NA                   NA    NA                    NA    NA
##  6  1933       2    NA                   NA    NA                    NA    NA
##  7  1934       2    NA                   NA    NA                    NA    NA
##  8  1935       2    NA                   NA    NA                    NA    NA
##  9  1936       2    NA                   NA    NA                    NA    NA
## 10  1937       2    NA                   NA    NA                    NA    NA
## # ℹ 87 more rows
## # ℹ 7 more variables: unemployment <dbl>, sp500_open <dbl>, sp500_high <dbl>,
## #   sp500_low <dbl>, sp500_close <dbl>, sp500_adj_close <dbl>,
## #   sp500_volume <dbl>
…
